ActsPixelClusterizationAlg                                        INFO Clusterization statistics
|----------|------------|
| RDOs     |    3423993 |
| Clusters |    1165578 |
|----------|------------|
ActsStripClusterizationAlg                                        INFO Clusterization statistics
|----------|------------|
| RDOs     |    1345365 |
| Clusters |    1081478 |
|----------|------------|
ActsPixelSpacePointFormationAlg                                   INFO Space Point Formation statistics
|--------------|------------|
| Clusters     |    1165578 |
| Space Points |    1165578 |
|--------------|------------|
ActsStripSpacePointFormationAlg                                   INFO Space Point Formation statistics
|----------------------|------------|
| Clusters             |    1081478 |
| Space Points         |     325456 |
| Overlap Space Points |      94491 |
|----------------------|------------|
ActsPixelSeedingAlg                                               INFO Seed statistics
|---------------------|------------|
| Spacepoints         |    1165578 |
| Seeds               |     123544 |
| No track parameters |          0 |
|---------------------|------------|
ActsStripSeedingAlg                                               INFO Seed statistics
|---------------------|------------|
| Spacepoints         |     419947 |
| Seeds               |      24791 |
| No track parameters |          0 |
|---------------------|------------|
ActsTrackFindingAlg                                               INFO statistics
|-----------------------------------|------------|------------|------------|
|                           All eta | PPP        | SSS        | ALL        |
|-----------------------------------|------------|------------|------------|
| Input seeds                       |     123544 |      24791 |     148335 |
| No track parameters               |          0 |          0 |          0 |
| Used   seeds                      |      78884 |      15500 |      94384 |
| Cannot find track                 |      65336 |      13943 |      79279 |
| Duplicate seeds                   |      44660 |       9291 |      53951 |
| CKF tracks                        |      13548 |       1557 |      15105 |
| Rejected refined parameters       |          0 |          0 |          0 |
| selected tracks                   |      13332 |        537 |      13869 |
| Stopped tracks reaching max holes |      62735 |      15148 |      77883 |
| Seeds with more than one branch   |          0 |          0 |          0 |
| Tracks failing second CKF         |       7590 |       1419 |       9009 |
| Stopped tracks below pT cut       |       3548 |        214 |       3762 |
| Stopped tracks above max eta      |         21 |          0 |         21 |
|-----------------------------------|------------|------------|------------|
ActsTrackFindingAlg                                               INFO Ratios
|------------------------------------------|------------|------------|------------|
|                                          | PPP        | SSS        | ALL        |
|------------------------------------------|------------|------------|------------|
| failed / seeds                           |   0.528848 |   0.562422 |   0.534459 |
| duplication / seeds                      |   0.361491 |   0.374773 |   0.363711 |
| Rejected refined params / seeds          |          0 |          0 |          0 |
| selected / CKF tracks                    |   0.984057 |   0.344894 |   0.918173 |
| selected tracks / used seeds             |   0.169008 |  0.0346452 |   0.146942 |
| branched tracks / used seeds             |          0 |          0 |          0 |
| no 2nd CKF / CKF tracks                  |    0.56023 |   0.911368 |   0.596425 |
|------------------------------------------|------------|------------|------------|
| selected / CKF tracks           0.0- 0.5 |   0.997314 |  0.0458716 |   0.841948 |
|                                 0.5- 1.0 |          1 |   0.162866 |   0.843864 |
|                                 1.0- 1.5 |   0.995276 |   0.137795 |   0.852362 |
|                                 1.5- 2.0 |   0.992069 |   0.649718 |   0.922458 |
|                                 2.0- 2.5 |    0.99489 |   0.501182 |   0.907143 |
|                                 2.5- 3.0 |   0.962757 |          0 |   0.962345 |
|                                 3.0- 3.5 |    0.96672 |          0 |    0.96672 |
|                                 3.5-+inf |   0.983993 |          0 |   0.983993 |
|------------------------------------------|------------|------------|------------|
ActsLargeRadiusPixelClusterPreparationAlg                         INFO Data Prep statistics
|---------|------------|
| Inputs  |    1165578 |
| Outputs |    1065133 |
|---------|------------|
ActsLargeRadiusStripClusterPreparationAlg                         INFO Data Prep statistics
|---------|------------|
| Inputs  |    1081478 |
| Outputs |    1041721 |
|---------|------------|
ActsLargeRadiusStripSpacePointPreparationAlg                      INFO Data Prep statistics
|---------|------------|
| Inputs  |     325456 |
| Outputs |     303704 |
|---------|------------|
ActsLargeRadiusStripOv...pSpacePointPreparationAlg                INFO Data Prep statistics
|---------|------------|
| Inputs  |      94491 |
| Outputs |      88340 |
|---------|------------|
ActsLargeRadiusStripSeedingAlg                                    INFO Seed statistics
|---------------------|------------|
| Spacepoints         |     392044 |
| Seeds               |       8973 |
| No track parameters |          0 |
|---------------------|------------|
ActsLargeRadiusTrackFindingAlg                                    INFO statistics
|-----------------------------------|------------|------------|
|                           All eta | SSS        | ALL        |
|-----------------------------------|------------|------------|
| Input seeds                       |       8973 |       8973 |
| No track parameters               |          0 |          0 |
| Used   seeds                      |       8946 |       8946 |
| Cannot find track                 |       8829 |       8829 |
| Duplicate seeds                   |         27 |         27 |
| CKF tracks                        |        117 |        117 |
| Rejected refined parameters       |          0 |          0 |
| selected tracks                   |         23 |         23 |
| Stopped tracks reaching max holes |       7649 |       7649 |
| Seeds with more than one branch   |          0 |          0 |
| Tracks failing second CKF         |        116 |        116 |
| Stopped tracks below pT cut       |       1296 |       1296 |
| Stopped tracks above max eta      |          0 |          0 |
|-----------------------------------|------------|------------|
ActsLargeRadiusTrackFindingAlg                                    INFO Ratios
|------------------------------------------|------------|------------|
|                                          | SSS        | ALL        |
|------------------------------------------|------------|------------|
| failed / seeds                           |   0.983952 |   0.983952 |
| duplication / seeds                      | 0.00300903 | 0.00300903 |
| Rejected refined params / seeds          |          0 |          0 |
| selected / CKF tracks                    |   0.196581 |   0.196581 |
| selected tracks / used seeds             | 0.00257098 | 0.00257098 |
| branched tracks / used seeds             |          0 |          0 |
| no 2nd CKF / CKF tracks                  |   0.991453 |   0.991453 |
|------------------------------------------|------------|------------|
| selected / CKF tracks           0.0- 0.5 |   0.178571 |   0.178571 |
|                                 0.5- 1.0 |   0.153846 |   0.153846 |
|                                 1.0- 1.5 |        0.1 |        0.1 |
|                                 1.5- 2.0 |   0.538462 |   0.538462 |
|                                 2.0- 2.5 |          0 |          0 |
|                                 2.5- 3.0 |          0 |          0 |
|                                 3.0- 3.5 |          0 |          0 |
|                                 3.5-+inf |          0 |          0 |
|------------------------------------------|------------|------------|
ActsConversionPixelClusterPreparationAlg                          INFO Data Prep statistics
|---------|------------|
| Inputs  |    1165578 |
| Outputs |      27224 |
|---------|------------|
ActsConversionStripClusterPreparationAlg                          INFO Data Prep statistics
|---------|------------|
| Inputs  |    1081478 |
| Outputs |      15529 |
|---------|------------|
ActsConversionStripSpacePointPreparationAlg                       INFO Data Prep statistics
|---------|------------|
| Inputs  |     325456 |
| Outputs |       4506 |
|---------|------------|
ActsConversionStripSeedingAlg                                     INFO Seed statistics
|---------------------|------------|
| Spacepoints         |       4506 |
| Seeds               |         45 |
| No track parameters |          0 |
|---------------------|------------|
ActsConversionTrackFindingAlg                                     INFO statistics
|-----------------------------------|------------|------------|
|                           All eta | SSS        | ALL        |
|-----------------------------------|------------|------------|
| Input seeds                       |         45 |         45 |
| No track parameters               |          0 |          0 |
| Used   seeds                      |         45 |         45 |
| Cannot find track                 |         45 |         45 |
| Duplicate seeds                   |          0 |          0 |
| CKF tracks                        |          0 |          0 |
| Rejected refined parameters       |          0 |          0 |
| selected tracks                   |          0 |          0 |
| Stopped tracks reaching max holes |         41 |         41 |
| Seeds with more than one branch   |          0 |          0 |
| Tracks failing second CKF         |          0 |          0 |
| Stopped tracks below pT cut       |          4 |          4 |
| Stopped tracks above max eta      |          0 |          0 |
|-----------------------------------|------------|------------|
ActsConversionTrackFindingAlg                                     INFO Ratios
|------------------------------------------|------------|------------|
|                                          | SSS        | ALL        |
|------------------------------------------|------------|------------|
| failed / seeds                           |          1 |          1 |
| duplication / seeds                      |          0 |          0 |
| Rejected refined params / seeds          |          0 |          0 |
| selected / CKF tracks                    |          0 |          0 |
| selected tracks / used seeds             |          0 |          0 |
| branched tracks / used seeds             |          0 |          0 |
| no 2nd CKF / CKF tracks                  |          0 |          0 |
|------------------------------------------|------------|------------|
| selected / CKF tracks           0.0- 0.5 |          0 |          0 |
|                                 0.5- 1.0 |          0 |          0 |
|                                 1.0- 1.5 |          0 |          0 |
|                                 1.5- 2.0 |          0 |          0 |
|                                 2.0- 2.5 |          0 |          0 |
|                                 2.5- 3.0 |          0 |          0 |
|                                 3.0- 3.5 |          0 |          0 |
|                                 3.5-+inf |          0 |          0 |
|------------------------------------------|------------|------------|
